<?xml version="1.0" encoding="UTF-8"?>
<svg width="16px" height="16px" viewBox="0 0 16 16" version="1.1" xmlns="http://www.w3.org/2000/svg" xmlns:xlink="http://www.w3.org/1999/xlink">
    <!-- Generator: Sketch 63.1 (92452) - https://sketch.com -->
    <title>Icon/16px/Remove</title>
    <desc>Created with Sketch.</desc>
    <g id="Icon/16px/Remove" stroke="none" stroke-width="1" fill="none" fill-rule="evenodd">
        <path d="M13.6490808,2.35091915 C13.1810473,1.88302695 12.4223649,1.88302695 11.9543314,2.35091915 L8.00750684,6.29774371 L4.06068228,2.35091915 C3.59039664,1.89670208 2.84285405,1.90319802 2.38053288,2.3655192 C1.9182117,2.82784037 1.91171576,3.57538295 2.36593283,4.0456686 L6.31275739,7.99249316 L2.36593283,11.9393177 C2.05436192,12.240243 1.92940589,12.6858679 2.03909171,13.1049162 C2.14877752,13.5239645 2.47603551,13.8512225 2.8950838,13.9609083 C3.31413209,14.0705941 3.75975702,13.9456381 4.06068228,13.6340672 L8.00750684,9.68724261 L11.9543314,13.6340672 C12.424617,14.0882842 13.1721596,14.0817883 13.6344808,13.6194671 C14.096802,13.1571459 14.1032979,12.4096034 13.6490808,11.9393177 L9.70225629,7.99249316 L13.6490808,4.0456686 C14.1169731,3.57763507 14.1169731,2.81895268 13.6490808,2.35091915 Z" id="Path" fill="#EF3B37"></path>
    </g>
</svg>