<?xml version="1.0" encoding="UTF-8"?>
<svg width="24px" height="24px" viewBox="0 0 24 24" version="1.1" xmlns="http://www.w3.org/2000/svg" xmlns:xlink="http://www.w3.org/1999/xlink">
    <!-- Generator: Sketch 63.1 (92452) - https://sketch.com -->
    <title>Icon/24px/Chanel/Grey</title>
    <desc>Created with Sketch.</desc>
    <g id="Icon/24px/Chanel/Grey" stroke="none" stroke-width="1" fill="none" fill-rule="evenodd">
        <rect id="Invisible-frame" x="0" y="0" width="24" height="24"></rect>
        <path d="M18,9 L18,6 C18,4.34314575 16.6568542,3 15,3 L3,3 C1.34314575,3 0,4.34314575 0,6 L0,18 C0,19.6568542 1.34314575,21 3,21 L15,21 C16.6568542,21 18,19.6568542 18,18 L18,15 L24,18 L24,6 L18,9 Z M4.5,9 C3.67157288,9 3,8.32842712 3,7.5 C3,6.67157288 3.67157288,6 4.5,6 C5.32842712,6 6,6.67157288 6,7.5 C6,8.32842712 5.32842712,9 4.5,9 Z" id="Shape" fill="#B7BABD"></path>
    </g>
</svg>